﻿2019-07-22 11:02:35,354 INFO [1] Valuation_Board.MvcApplication.Application_Start - Application Started up

2019-07-22 11:25:44,316 INFO [1] Valuation_Board.MvcApplication.Application_Start - Application Started up

2019-07-22 11:30:02,763 INFO [32] Valuation_Board.MvcApplication.Application_Start - Application Started up

2019-07-22 11:41:19,812 INFO [1] Valuation_Board.MvcApplication.Application_Start - Application Started up

2019-07-22 11:46:52,837 INFO [38] Valuation_Board.MvcApplication.Application_Start - Application Started up
2019-07-22 16:18:24,700 INFO [1] Valuation_Board.MvcApplication.Application_Start - Application Started up
